A248/data/oszi/ALL0001/F0001CH1.CSV

Record Length,2.500000e+03,,   0.000000000000,   0.01080,
Sample Interval,1.000000e-02,,   0.010000000000,   0.01024,
Trigger Point,0.000000000000e+00,,   0.020000000000,   0.01056,
,,,   0.030000000000,   0.01080,
,,,   0.040000000000,   0.01072,
,,,   0.050000000000,   0.01072,
Source,CH1,,   0.060000000000,   0.01048,
Vertical Units,V,,   0.070000000000,   0.01016,
Vertical Scale,2.000000e-03,,   0.080000000000,   0.01056,
Vertical Offset,-7.120000e-03,,   0.090000000000,   0.01056,
Horizontal Units,s,,   0.100000000000,   0.01072,
Horizontal Scale,2.500000e+00,,   0.110000000000,   0.00992,
Pt Fmt,Y,,   0.120000000000,   0.01112,
Yzero,0.000000e+00,,   0.130000000000,   0.01024,
Probe Atten,1.000000e+00,,   0.140000000000,   0.01048,
Model Number,TDS1001B,,   0.150000000000,   0.01024,
Serial Number,C059924,,   0.160000000000,   0.01056,
Firmware Version,FV:v22.01,,   0.170000000000,   0.01032,
,,,0.180000000000,   0.01064,
,,,0.190000000000,   0.01056,
,,,0.200000000000,   0.01048,
,,,0.210000000000,   0.01016,
,,,0.220000000000,   0.01096,
,,,0.230000000000,   0.01072,
,,,0.240000000000,   0.01096,
,,,0.250000000000,   0.01064,
,,,0.260000000000,   0.01072,
,,,0.270000000000,   0.01016,
,,,0.280000000000,   0.01088,
,,,0.290000000000,   0.01048,
,,,0.300000000000,   0.01048,
,,,0.310000000000,   0.01072,
,,,0.320000000000,   0.01104,
,,,0.330000000000,   0.01032,
,,,0.340000000000,   0.01080,
,,,0.350000000000,   0.01048,
,,,0.360000000000,   0.01080,
,,,0.370000000000,   0.01056,
,,,0.380000000000,   0.01048,
,,,0.390000000000,   0.00992,
,,,0.400000000000,   0.01048,
,,,0.410000000000,   0.01024,
,,,0.420000000000,   0.01032,
,,,0.430000000000,   0.01032,
,,,0.440000000000,   0.01072,
,,,0.450000000000,   0.01104,
,,,0.460000000000,   0.01096,
,,,0.470000000000,   0.01016,
,,,0.480000000000,   0.01080,
,,,0.490000000000,   0.01056,
,,,0.500000000000,   0.01096,
,,,0.510000000000,   0.01024,
,,,0.520000000000,   0.01088,
,,,0.530000000000,   0.01024,
,,,0.540000000000,   0.01080,
,,,0.550000000000,   0.01048,
,,,0.560000000000,   0.01056,
,,,0.570000000000,   0.01032,
,,,0.580000000000,   0.01088,
,,,0.590000000000,   0.01056,
,,,0.600000000000,   0.01024,
,,,0.610000000000,   0.01016,
,,,0.620000000000,   0.01104,
,,,0.630000000000,   0.01000,
,,,0.640000000000,   0.01088,
,,,0.650000000000,   0.00992,
,,,0.660000000000,   0.01072,
,,,0.670000000000,   0.01032,
,,,0.680000000000,   0.01096,
,,,0.690000000000,   0.01064,
,,,0.700000000000,   0.01080,
,,,0.710000000000,   0.00992,
,,,0.720000000000,   0.01056,
,,,0.730000000000,   0.01056,
,,,0.740000000000,   0.01064,
,,,0.750000000000,   0.01072,
,,,0.760000000000,   0.01024,
,,,0.770000000000,   0.01016,
,,,0.780000000000,   0.01016,
,,,0.790000000000,   0.01072,
,,,0.800000000000,   0.01048,
,,,0.810000000000,   0.01024,
,,,0.820000000000,   0.01080,
,,,0.830000000000,   0.01040,
,,,0.840000000000,   0.01048,
,,,0.850000000000,   0.01024,
,,,0.860000000000,   0.01024,
,,,0.870000000000,   0.01032,
,,,0.880000000000,   0.01048,
,,,0.890000000000,   0.00968,
,,,0.900000000000,   0.01104,
,,,0.910000000000,   0.01024,
,,,0.920000000000,   0.01032,
,,,0.930000000000,   0.01048,
,,,0.940000000000,   0.01008,
,,,0.950000000000,   0.00944,
,,,0.960000000000,   0.01080,
,,,0.970000000000,   0.00992,
,,,0.980000000000,   0.01072,
,,,0.990000000000,   0.00992,
,,,1.000000000000,   0.01048,
,,,1.010000000000,   0.00992,
,,,1.020000000000,   0.01064,
,,,1.030000000000,   0.01024,
,,,1.040000000000,   0.00984,
,,,1.050000000000,   0.00968,
,,,1.060000000000,   0.01024,
,,,1.070000000000,   0.01024,
,,,1.080000000000,   0.01024,
,,,1.090000000000,   0.01048,
,,,1.100000000000,   0.01000,
,,,1.110000000000,   0.01008,
,,,1.120000000000,   0.01024,
,,,1.130000000000,   0.01024,
,,,1.140000000000,   0.01048,
,,,1.150000000000,   0.01032,
,,,1.160000000000,   0.01056,
,,,1.170000000000,   0.00992,
,,,1.180000000000,   0.01128,
,,,1.190000000000,   0.01032,
,,,1.200000000000,   0.01064,
,,,1.210000000000,   0.01024,
,,,1.220000000000,   0.01024,
,,,1.230000000000,   0.00984,
,,,1.240000000000,   0.01008,
,,,1.250000000000,   0.01008,
,,,1.260000000000,   0.01024,
,,,1.270000000000,   0.00992,
,,,1.280000000000,   0.01048,
,,,1.290000000000,   0.01032,
,,,1.300000000000,   0.01048,
,,,1.310000000000,   0.01048,
,,,1.320000000000,   0.01016,
,,,1.330000000000,   0.00992,
,,,1.340000000000,   0.01048,
,,,1.350000000000,   0.01032,
,,,1.360000000000,   0.01072,
,,,1.370000000000,   0.00992,
,,,1.380000000000,   0.01024,
,,,1.390000000000,   0.00992,
,,,1.400000000000,   0.01000,
,,,1.410000000000,   0.01000,
,,,1.420000000000,   0.01048,
,,,1.430000000000,   0.01016,
,,,1.440000000000,   0.01024,
,,,1.450000000000,   0.01024,
,,,1.460000000000,   0.00992,
,,,1.470000000000,   0.01016,
,,,1.480000000000,   0.01048,
,,,1.490000000000,   0.00952,
,,,1.500000000000,   0.00992,
,,,1.510000000000,   0.00976,
,,,1.520000000000,   0.01016,
,,,1.530000000000,   0.00992,
,,,1.540000000000,   0.01056,
,,,1.550000000000,   0.00992,
,,,1.560000000000,   0.01040,
,,,1.570000000000,   0.00984,
,,,1.580000000000,   0.01016,
,,,1.590000000000,   0.01032,
,,,1.600000000000,   0.01040,
,,,1.610000000000,   0.01048,
,,,1.620000000000,   0.01024,
,,,1.630000000000,   0.01048,
,,,1.640000000000,   0.01024,
,,,1.650000000000,   0.00992,
,,,1.660000000000,   0.00984,
,,,1.670000000000,   0.01000,
,,,1.680000000000,   0.01056,
,,,1.690000000000,   0.01072,
,,,1.700000000000,   0.01008,
,,,1.710000000000,   0.01016,
,,,1.720000000000,   0.01080,
,,,1.730000000000,   0.01024,
,,,1.740000000000,   0.01040,
,,,1.750000000000,   0.00968,
,,,1.760000000000,   0.01024,
,,,1.770000000000,   0.01016,
,,,1.780000000000,   0.01032,
,,,1.790000000000,   0.01016,
,,,1.800000000000,   0.01072,
,,,1.810000000000,   0.01008,
,,,1.820000000000,   0.01032,
,,,1.830000000000,   0.01048,
,,,1.840000000000,   0.01056,
,,,1.850000000000,   0.00976,
,,,1.860000000000,   0.01080,
,,,1.870000000000,   0.01056,
,,,1.880000000000,   0.01024,
,,,1.890000000000,   0.00992,
,,,1.900000000000,   0.01040,
,,,1.910000000000,   0.00984,
,,,1.920000000000,   0.01000,
,,,1.930000000000,   0.00984,
,,,1.940000000000,   0.01008,
,,,1.950000000000,   0.01024,
,,,1.960000000000,   0.01032,
,,,1.970000000000,   0.01000,
,,,1.980000000000,   0.01032,
,,,1.990000000000,   0.01032,
,,,2.000000000000,   0.01040,
,,,2.010000000000,   0.01000,
,,,2.020000000000,   0.01032,
,,,2.030000000000,   0.00976,
,,,2.040000000000,   0.01056,
,,,2.050000000000,   0.01016,
,,,2.060000000000,   0.01040,
,,,2.070000000000,   0.01048,
,,,2.080000000000,   0.01040,
,,,2.090000000000,   0.00960,
,,,2.100000000000,   0.01056,
,,,2.110000000000,   0.01024,
,,,2.120000000000,   0.00992,
,,,2.130000000000,   0.01048,
,,,2.140000000000,   0.01064,
,,,2.150000000000,   0.00968,
,,,2.160000000000,   0.01064,
,,,2.170000000000,   0.01008,
,,,2.180000000000,   0.01048,
,,,2.190000000000,   0.00984,
,,,2.200000000000,   0.01104,
,,,2.210000000000,   0.00992,
,,,2.220000000000,   0.01032,
,,,2.230000000000,   0.00992,
,,,2.240000000000,   0.01016,
,,,2.250000000000,   0.00992,
,,,2.260000000000,   0.01032,
,,,2.270000000000,   0.01024,
,,,2.280000000000,   0.01064,
,,,2.290000000000,   0.01000,
,,,2.300000000000,   0.01112,
,,,2.310000000000,   0.00992,
,,,2.320000000000,   0.00968,
,,,2.330000000000,   0.01040,
,,,2.340000000000,   0.01032,
,,,2.350000000000,   0.01008,
,,,2.360000000000,   0.01024,
,,,2.370000000000,   0.00968,
,,,2.380000000000,   0.01056,
,,,2.390000000000,   0.01032,
,,,2.400000000000,   0.00992,
,,,2.410000000000,   0.00984,
,,,2.420000000000,   0.01024,
,,,2.430000000000,   0.00992,
,,,2.440000000000,   0.01024,
,,,2.450000000000,   0.01016,
,,,2.460000000000,   0.01064,
,,,2.470000000000,   0.01016,
,,,2.480000000000,   0.01072,
,,,2.490000000000,   0.01000,
,,,2.500000000000,   0.01048,
,,,2.510000000000,   0.00976,
,,,2.520000000000,   0.01048,
,,,2.530000000000,   0.01016,
,,,2.540000000000,   0.01056,
,,,2.550000000000,   0.01024,
,,,2.560000000000,   0.01080,
,,,2.570000000000,   0.01016,
,,,2.580000000000,   0.01016,
,,,2.590000000000,   0.01048,
,,,2.600000000000,   0.01048,
,,,2.610000000000,   0.00992,
,,,2.620000000000,   0.01008,
,,,2.630000000000,   0.00976,
,,,2.640000000000,   0.01072,
,,,2.650000000000,   0.01032,
,,,2.660000000000,   0.00992,
,,,2.670000000000,   0.01024,
,,,2.680000000000,   0.01032,
,,,2.690000000000,   0.01008,
,,,2.700000000000,   0.01096,
,,,2.710000000000,   0.01024,
,,,2.720000000000,   0.01016,
,,,2.730000000000,   0.01000,
,,,2.740000000000,   0.01040,
,,,2.750000000000,   0.01032,
,,,2.760000000000,   0.00992,
,,,2.770000000000,   0.01000,
,,,2.780000000000,   0.01016,
,,,2.790000000000,   0.01056,
,,,2.800000000000,   0.00992,
,,,2.810000000000,   0.01048,
,,,2.820000000000,   0.01072,
,,,2.830000000000,   0.01024,
,,,2.840000000000,   0.01064,
,,,2.850000000000,   0.01000,
,,,2.860000000000,   0.01000,
,,,2.870000000000,   0.00936,
,,,2.880000000000,   0.01104,
,,,2.890000000000,   0.00968,
,,,2.900000000000,   0.01016,
,,,2.910000000000,   0.01024,
,,,2.920000000000,   0.01088,
,,,2.930000000000,   0.01072,
,,,2.940000000000,   0.01024,
,,,2.950000000000,   0.01016,
,,,2.960000000000,   0.01056,
,,,2.970000000000,   0.00992,
,,,2.980000000000,   0.01048,
,,,2.990000000000,   0.00992,
,,,3.000000000000,   0.01024,
,,,3.010000000000,   0.01048,
,,,3.020000000000,   0.01040,
,,,3.030000000000,   0.01024,
,,,3.040000000000,   0.01064,
,,,3.050000000000,   0.01000,
,,,3.060000000000,   0.01064,
,,,3.070000000000,   0.00984,
,,,3.080000000000,   0.01024,
,,,3.090000000000,   0.00984,
,,,3.100000000000,   0.01024,
,,,3.110000000000,   0.01000,
,,,3.120000000000,   0.00992,
,,,3.130000000000,   0.01016,
,,,3.140000000000,   0.01048,
,,,3.150000000000,   0.01064,
,,,3.160000000000,   0.01024,
,,,3.170000000000,   0.00992,
,,,3.180000000000,   0.01072,
,,,3.190000000000,   0.01040,
,,,3.200000000000,   0.01032,
,,,3.210000000000,   0.01000,
,,,3.220000000000,   0.01000,
,,,3.230000000000,   0.01032,
,,,3.240000000000,   0.00992,
,,,3.250000000000,   0.01000,
,,,3.260000000000,   0.01024,
,,,3.270000000000,   0.01048,
,,,3.280000000000,   0.01008,
,,,3.290000000000,   0.01032,
,,,3.300000000000,   0.01032,
,,,3.310000000000,   0.00968,
,,,3.320000000000,   0.01016,
,,,3.330000000000,   0.01008,
,,,3.340000000000,   0.01024,
,,,3.350000000000,   0.01024,
,,,3.360000000000,   0.00992,
,,,3.370000000000,   0.01024,
,,,3.380000000000,   0.01040,
,,,3.390000000000,   0.00976,
,,,3.400000000000,   0.01048,
,,,3.410000000000,   0.01000,
,,,3.420000000000,   0.00976,
,,,3.430000000000,   0.01064,
,,,3.440000000000,   0.01096,
,,,3.450000000000,   0.01000,
,,,3.460000000000,   0.01024,
,,,3.470000000000,   0.01000,
,,,3.480000000000,   0.01040,
,,,3.490000000000,   0.01008,
,,,3.500000000000,   0.01064,
,,,3.510000000000,   0.00968,
,,,3.520000000000,   0.01024,
,,,3.530000000000,   0.01008,
,,,3.540000000000,   0.01032,
,,,3.550000000000,   0.01024,
,,,3.560000000000,   0.01032,
,,,3.570000000000,   0.00992,
,,,3.580000000000,   0.01048,
,,,3.590000000000,   0.01024,
,,,3.600000000000,   0.01040,
,,,3.610000000000,   0.00976,
,,,3.620000000000,   0.01024,
,,,3.630000000000,   0.01016,
,,,3.640000000000,   0.01080,
,,,3.650000000000,   0.01024,
,,,3.660000000000,   0.01048,
,,,3.670000000000,   0.00984,
,,,3.680000000000,   0.01048,
,,,3.690000000000,   0.01024,
,,,3.700000000000,   0.01024,
,,,3.710000000000,   0.01016,
,,,3.720000000000,   0.01016,
,,,3.730000000000,   0.01024,
,,,3.740000000000,   0.01024,
,,,3.750000000000,   0.01048,
,,,3.760000000000,   0.01000,
,,,3.770000000000,   0.00992,
,,,3.780000000000,   0.01056,
,,,3.790000000000,   0.01048,
,,,3.800000000000,   0.01024,
,,,3.810000000000,   0.01008,
,,,3.820000000000,   0.01008,
,,,3.830000000000,   0.00992,
,,,3.840000000000,   0.01032,
,,,3.850000000000,   0.01048,
,,,3.860000000000,   0.01008,
,,,3.870000000000,   0.01000,
,,,3.880000000000,   0.00992,
,,,3.890000000000,   0.00992,
,,,3.900000000000,   0.01032,
,,,3.910000000000,   0.01000,
,,,3.920000000000,   0.01040,
,,,3.930000000000,   0.00984,
,,,3.940000000000,   0.01024,
,,,3.950000000000,   0.01048,
,,,3.960000000000,   0.01040,
,,,3.970000000000,   0.01048,
,,,3.980000000000,   0.01048,
,,,3.990000000000,   0.00992,
,,,4.000000000000,   0.01032,
,,,4.010000000000,   0.00992,
,,,4.020000000000,   0.01048,
,,,4.030000000000,   0.00992,
,,,4.040000000000,   0.01016,
,,,4.050000000000,   0.01048,
,,,4.060000000000,   0.01064,
,,,4.070000000000,   0.01016,
,,,4.080000000000,   0.01072,
,,,4.090000000000,   0.01024,
,,,4.100000000000,   0.01080,
,,,4.110000000000,   0.01000,
,,,4.120000000000,   0.01048,
,,,4.130000000000,   0.01032,
,,,4.140000000000,   0.01056,
,,,4.150000000000,   0.01024,
,,,4.160000000000,   0.01048,
,,,4.170000000000,   0.00992,
,,,4.180000000000,   0.01056,
,,,4.190000000000,   0.00992,
,,,4.200000000000,   0.01056,
,,,4.210000000000,   0.01024,
,,,4.220000000000,   0.01032,
,,,4.230000000000,   0.00984,
,,,4.240000000000,   0.01072,
,,,4.250000000000,   0.01024,
,,,4.260000000000,   0.01088,
,,,4.270000000000,   0.01024,
,,,4.280000000000,   0.01016,
,,,4.290000000000,   0.01024,
,,,4.300000000000,   0.01064,
,,,4.310000000000,   0.00984,
,,,4.320000000000,   0.01032,
,,,4.330000000000,   0.01024,
,,,4.340000000000,   0.01032,
,,,4.350000000000,   0.01024,
,,,4.360000000000,   0.01024,
,,,4.370000000000,   0.01024,
,,,4.380000000000,   0.01032,
,,,4.390000000000,   0.00992,
,,,4.400000000000,   0.01088,
,,,4.410000000000,   0.01032,
,,,4.420000000000,   0.01072,
,,,4.430000000000,   0.01032,
,,,4.440000000000,   0.01064,
,,,4.450000000000,   0.01016,
,,,4.460000000000,   0.01008,
,,,4.470000000000,   0.00992,
,,,4.480000000000,   0.01104,
,,,4.490000000000,   0.01064,
,,,4.500000000000,   0.01024,
,,,4.510000000000,   0.01048,
,,,4.520000000000,   0.01064,
,,,4.530000000000,   0.01064,
,,,4.540000000000,   0.01104,
,,,4.550000000000,   0.01032,
,,,4.560000000000,   0.01032,
,,,4.570000000000,   0.01024,
,,,4.580000000000,   0.01056,
,,,4.590000000000,   0.01000,
,,,4.600000000000,   0.01040,
,,,4.610000000000,   0.01024,
,,,4.620000000000,   0.01056,
,,,4.630000000000,   0.01032,
,,,4.640000000000,   0.01080,
,,,4.650000000000,   0.01032,
,,,4.660000000000,   0.01032,
,,,4.670000000000,   0.01032,
,,,4.680000000000,   0.01064,
,,,4.690000000000,   0.00992,
,,,4.700000000000,   0.00992,
,,,4.710000000000,   0.00992,
,,,4.720000000000,   0.01048,
,,,4.730000000000,   0.00968,
,,,4.740000000000,   0.00992,
,,,4.750000000000,   0.00992,
,,,4.760000000000,   0.01048,
,,,4.770000000000,   0.00976,
,,,4.780000000000,   0.01048,
,,,4.790000000000,   0.01024,
,,,4.800000000000,   0.01040,
,,,4.810000000000,   0.01048,
,,,4.820000000000,   0.01040,
,,,4.830000000000,   0.01048,
,,,4.840000000000,   0.01048,
,,,4.850000000000,   0.01072,
,,,4.860000000000,   0.01048,
,,,4.870000000000,   0.00992,
,,,4.880000000000,   0.01072,
,,,4.890000000000,   0.01040,
,,,4.900000000000,   0.01080,
,,,4.910000000000,   0.01000,
,,,4.920000000000,   0.01104,
,,,4.930000000000,   0.01008,
,,,4.940000000000,   0.01088,
,,,4.950000000000,   0.00992,
,,,4.960000000000,   0.01040,
,,,4.970000000000,   0.01040,
,,,4.980000000000,   0.01040,
,,,4.990000000000,   0.01048,
,,,5.000000000000,   0.01064,
,,,5.010000000000,   0.01048,
,,,5.020000000000,   0.01040,
,,,5.030000000000,   0.01048,
,,,5.040000000000,   0.01048,
,,,5.050000000000,   0.01072,
,,,5.060000000000,   0.01048,
,,,5.070000000000,   0.00968,
,,,5.080000000000,   0.01088,
,,,5.090000000000,   0.01040,
,,,5.100000000000,   0.01072,
,,,5.110000000000,   0.01040,
,,,5.120000000000,   0.01080,
,,,5.130000000000,   0.01000,
,,,5.140000000000,   0.01048,
,,,5.150000000000,   0.01032,
,,,5.160000000000,   0.01008,
,,,5.170000000000,   0.01024,
,,,5.180000000000,   0.01024,
,,,5.190000000000,   0.01024,
,,,5.200000000000,   0.01024,
,,,5.210000000000,   0.00984,
,,,5.220000000000,   0.01112,
,,,5.230000000000,   0.00984,
,,,5.240000000000,   0.01080,
,,,5.250000000000,   0.00992,
,,,5.260000000000,   0.01008,
,,,5.270000000000,   0.01024,
,,,5.280000000000,   0.01040,
,,,5.290000000000,   0.01032,
,,,5.300000000000,   0.01080,
,,,5.310000000000,   0.00976,
,,,5.320000000000,   0.01040,
,,,5.330000000000,   0.01024,
,,,5.340000000000,   0.01064,
,,,5.350000000000,   0.01016,
,,,5.360000000000,   0.00992,
,,,5.370000000000,   0.01040,
,,,5.380000000000,   0.01032,
,,,5.390000000000,   0.01048,
,,,5.400000000000,   0.01080,
,,,5.410000000000,   0.01048,
,,,5.420000000000,   0.01080,
,,,5.430000000000,   0.01056,
,,,5.440000000000,   0.01064,
,,,5.450000000000,   0.01016,
,,,5.460000000000,   0.01040,
,,,5.470000000000,   0.01040,
,,,5.480000000000,   0.01056,
,,,5.490000000000,   0.01048,
,,,5.500000000000,   0.01064,
,,,5.510000000000,   0.00992,
,,,5.520000000000,   0.01088,
,,,5.530000000000,   0.00992,
,,,5.540000000000,   0.01072,
,,,5.550000000000,   0.01024,
,,,5.560000000000,   0.01056,
,,,5.570000000000,   0.01032,
,,,5.580000000000,   0.01032,
,,,5.590000000000,   0.01040,
,,,5.600000000000,   0.01024,
,,,5.610000000000,   0.01040,
,,,5.620000000000,   0.01136,
,,,5.630000000000,   0.01032,
,,,5.640000000000,   0.01056,
,,,5.650000000000,   0.01008,
,,,5.660000000000,   0.01032,
,,,5.670000000000,   0.01024,
,,,5.680000000000,   0.01032,
,,,5.690000000000,   0.01072,
,,,5.700000000000,   0.01040,
,,,5.710000000000,   0.00992,
,,,5.720000000000,   0.01024,
,,,5.730000000000,   0.01048,
,,,5.740000000000,   0.01112,
,,,5.750000000000,   0.01000,
,,,5.760000000000,   0.01096,
,,,5.770000000000,   0.01016,
,,,5.780000000000,   0.01048,
,,,5.790000000000,   0.01040,
,,,5.800000000000,   0.01080,
,,,5.810000000000,   0.01080,
,,,5.820000000000,   0.01048,
,,,5.830000000000,   0.01016,
,,,5.840000000000,   0.01072,
,,,5.850000000000,   0.01064,
,,,5.860000000000,   0.01104,
,,,5.870000000000,   0.01080,
,,,5.880000000000,   0.01080,
,,,5.890000000000,   0.01048,
,,,5.900000000000,   0.01032,
,,,5.910000000000,   0.01008,
,,,5.920000000000,   0.01080,
,,,5.930000000000,   0.01040,
,,,5.940000000000,   0.01064,
,,,5.950000000000,   0.01064,
,,,5.960000000000,   0.01024,
,,,5.970000000000,   0.01032,
,,,5.980000000000,   0.01080,
,,,5.990000000000,   0.01040,
,,,6.000000000000,   0.01080,
,,,6.010000000000,   0.01080,
,,,6.020000000000,   0.01024,
,,,6.030000000000,   0.01048,
,,,6.040000000000,   0.01080,
,,,6.050000000000,   0.01080,
,,,6.060000000000,   0.01088,
,,,6.070000000000,   0.01104,
,,,6.080000000000,   0.01040,
,,,6.090000000000,   0.01048,
,,,6.100000000000,   0.01064,
,,,6.110000000000,   0.01056,
,,,6.120000000000,   0.01104,
,,,6.130000000000,   0.01032,
,,,6.140000000000,   0.01120,
,,,6.150000000000,   0.01064,
,,,6.160000000000,   0.01096,
,,,6.170000000000,   0.01048,
,,,6.180000000000,   0.01048,
,,,6.190000000000,   0.01008,
,,,6.200000000000,   0.01056,
,,,6.210000000000,   0.01032,
,,,6.220000000000,   0.01056,
,,,6.230000000000,   0.01080,
,,,6.240000000000,   0.01072,
,,,6.250000000000,   0.01128,
,,,6.260000000000,   0.01136,
,,,6.270000000000,   0.01064,
,,,6.280000000000,   0.01080,
,,,6.290000000000,   0.01024,
,,,6.300000000000,   0.01048,
,,,6.310000000000,   0.01064,
,,,6.320000000000,   0.01040,
,,,6.330000000000,   0.01024,
,,,6.340000000000,   0.01064,
,,,6.350000000000,   0.01024,
,,,6.360000000000,   0.01088,
,,,6.370000000000,   0.01040,
,,,6.380000000000,   0.01080,
,,,6.390000000000,   0.01016,
,,,6.400000000000,   0.01064,
,,,6.410000000000,   0.01096,
,,,6.420000000000,   0.01048,
,,,6.430000000000,   0.01040,
,,,6.440000000000,   0.01088,
,,,6.450000000000,   0.01048,
,,,6.460000000000,   0.01072,
,,,6.470000000000,   0.01056,
,,,6.480000000000,   0.01120,
,,,6.490000000000,   0.01072,
,,,6.500000000000,   0.01032,
,,,6.510000000000,   0.01032,
,,,6.520000000000,   0.01048,
,,,6.530000000000,   0.01080,
